%YAML 1.1
%TAG !u! tag:unity3d.com,2011:
--- !u!1045 &1
EditorBuildSettings:
  m_ObjectHideFlags: 0
  serializedVersion: 2
  m_Scenes:
  - enabled: 1
    path: Assets/Scenes/Menu.unity
    guid: 910c5a0b07b7c0641a97c5d442267fad
  - enabled: 1
    path: Assets/Scenes/Game.unity
    guid: 8a48b60113b20ea49bb1de5395d15bd9
  m_configObjects: {}
