%YAML 1.1
%TAG !u! tag:unity3d.com,2011:
--- !u!78 &1
TagManager:
  serializedVersion: 2
  tags: []
  layers:
  - Default
  - TransparentFX
  - Ignore Raycast
  - 
  - Water
  - UI
  - 
  - 
  - 
  - 
  - 
  - 
  - 
  - 
  - 
  - 
  - 
  - 
  - 
  - 
  - 
  - 
  - 
  - 
  - 
  - 
  - 
  - 
  - 
  - 
  - 
  - 
  m_SortingLayers:
  - name: Default
    uniqueID: 0
    locked: 0
  - name: Background
    uniqueID: 3204673735
    locked: 0
  - name: Table
    uniqueID: 2797265129
    locked: 0
  - name: BlackCard
    uniqueID: 784257817
    locked: 0
  - name: WhiteCard0
    uniqueID: 3140515985
    locked: 0
  - name: WhiteCard1
    uniqueID: 3080044275
    locked: 0
  - name: WhiteCard2
    uniqueID: 1107374803
    locked: 0
  - name: WhiteCard3
    uniqueID: 398384335
    locked: 0
  - name: WhiteCard4
    uniqueID: 407214751
    locked: 0
  - name: WhiteCard5
    uniqueID: 135326257
    locked: 0
  - name: WhiteCard6
    uniqueID: 720122295
    locked: 0
  - name: WhiteCard7
    uniqueID: 1281881515
    locked: 0
  - name: WhiteCard8
    uniqueID: 4080467323
    locked: 0
  - name: WhiteCard9
    uniqueID: 2733325229
    locked: 0
  - name: ClickCards
    uniqueID: 3994551419
    locked: 0
